<svg xmlns="http://www.w3.org/2000/svg" 
  xmlns:xlink="http://www.w3.org/1999/xlink" viewBox="0 0 184.23 80">
  <title>Moving Medicine</title>
  <defs>
    <style>.cls-1{isolation:isolate;}.cls-2{fill:url(#linear-gradient);}.cls-3{mix-blend-mode:multiply;fill:url(#linear-gradient-2);}.cls-4{fill:#333;}</style>
    <linearGradient id="linear-gradient" x1="92.52" y1="49.25" x2="92.52" y2="0" gradientUnits="userSpaceOnUse">
      <stop offset="0" stop-color="#ffbf00"/>
      <stop offset="1" stop-color="#ff5c7e"/>
    </linearGradient>
    <linearGradient id="linear-gradient-2" x1="101.32" y1="33.25" x2="101.32" y2="14.78" gradientUnits="userSpaceOnUse">
      <stop offset="0%" stop-color="#ff5c7e" stop-opacity="0"/>
      <stop offset="100%" stop-color="#ff5c7e"/>
    </linearGradient>
  </defs>
  <g class="cls-1">
    <g id="Layer_2" data-name="Layer 2">
      <g id="Layer_1-2" data-name="Layer 1">
        <path class="cls-2" d="M51.6,49.25a5,5,0,0,1-1.2-.15A5.09,5.09,0,0,1,46.64,43c3.11-12.94,9-24.31,16.45-32C71.26,2.53,81-1.22,90.64.35a19.22,19.22,0,0,1,11.47,6.52A26.14,26.14,0,0,1,115.56,7c9.84,2.65,16.94,10.05,20.54,21.42a54.12,54.12,0,0,1,2.44,15.69,5.11,5.11,0,0,1-10.21-.2,44.21,44.21,0,0,0-2-12.64c-2.55-7.86-7.06-12.71-13.39-14.42a16.86,16.86,0,0,0-5.77-.58,30.78,30.78,0,0,1,1.25,9.79c-.37,10-5.58,16.95-13.27,17.63-4.94.43-9-1.6-11.14-5.57-3.14-5.83-1.35-14.92,4.34-22.11a27.67,27.67,0,0,1,4.14-4.23A8.51,8.51,0,0,0,89,10.42c-8-1.3-14.5,3.43-18.58,7.63-6.24,6.41-11.16,16.1-13.85,27.29A5.11,5.11,0,0,1,51.6,49.25ZM97.77,20.77a16.86,16.86,0,0,0-1.45,1.62C92.66,27,92.2,31.89,93,33.32c0,.1.18.33,1.26.24,2.53-.22,3.83-4.22,4-7.84A20.71,20.71,0,0,0,97.77,20.77Z"/>
        <path class="cls-3" d="M94.23,33.56c2.53-.22,3.83-4.22,4-7.84a20.64,20.64,0,0,0-.43-4.94s4-4,9.41-4.46a30.77,30.77,0,0,1,1.22,9.78c-.38,10-5.58,17-13.26,17.63l-.6,0"/>
        <path class="cls-4" d="M8.77,74,4.59,64,3.7,74.14H0L1.55,57.42H5.28L10,68.67l4.68-11.25h3.73l1.55,16.72h-3.7L15.34,64,11.16,74Z"/>
        <path class="cls-4" d="M27.1,61.62a6.4,6.4,0,1,1,0,12.79,6.4,6.4,0,1,1,0-12.79Zm0,9.73A3.34,3.34,0,1,0,23.83,68,3.3,3.3,0,0,0,27.1,71.35Z"/>
        <path class="cls-4" d="M41.56,74.14H38L32.89,61.88h3.89l3,8.27,3-8.27h3.9Z"/>
        <path class="cls-4" d="M48.9,56.6a2.11,2.11,0,0,1,2.27,2,2.08,2.08,0,0,1-2.27,2,2.05,2.05,0,0,1-2.25-2A2.08,2.08,0,0,1,48.9,56.6ZM47.08,74.14V61.88h3.57V74.14Z"/>
        <path class="cls-4" d="M52.32,61.88h3.56v1.68a4.35,4.35,0,0,1,3.8-1.94c3.44,0,4.37,2.75,4.37,5.86v6.66H60.49V67.55c0-1.7-.62-3-2.27-3s-2.34,1.32-2.34,3v6.57H52.32Z"/>
        <path class="cls-4" d="M78.2,73.28c0,4.83-3.15,6.72-6.64,6.72a8.9,8.9,0,0,1-5.81-1.7l1.41-2.77a6.52,6.52,0,0,0,3.68,1.39c1.84,0,3.8-.55,3.8-3.23V72.35a4.38,4.38,0,0,1-3.85,2.06c-3.72,0-6-2.87-6-6.45s2.08-6.34,5.9-6.34a4.9,4.9,0,0,1,3.92,1.94V61.88H78.2Zm-6.67-1.76a3.08,3.08,0,0,0,3.21-3.35c0-2.27-1.37-3.66-3.3-3.66S68.38,66.09,68.38,68,69.57,71.52,71.53,71.52Z"/>
        <path class="cls-4" d="M92.73,74,88.55,64l-.88,10.18H84l1.56-16.72h3.72l4.69,11.25,4.68-11.25h3.73l1.55,16.72h-3.7L99.31,64,95.12,74Z"/>
        <path class="cls-4" d="M117.54,72a7.66,7.66,0,0,1-5.71,2.42c-4.54,0-7-2.85-7-6.34a6.46,6.46,0,0,1,6.77-6.45c3.39,0,6.64,2.34,6.64,7.22h-9.87c.07,1.53,1.48,2.65,3.75,2.65a5.16,5.16,0,0,0,3.4-1.46Zm-9.13-5.3h6.15a2.87,2.87,0,0,0-3-2.18A3,3,0,0,0,108.41,66.69Z"/>
        <path class="cls-4" d="M132,56.87V74.14h-3.56V72.35a4.38,4.38,0,0,1-3.85,2.06c-3.72,0-6-2.87-6-6.45s2.08-6.34,5.9-6.34a4.88,4.88,0,0,1,3.92,1.94V56.87Zm-6.67,14.65a3.08,3.08,0,0,0,3.21-3.35c0-2.27-1.36-3.66-3.3-3.66s-3.06,1.58-3.06,3.47S123.38,71.52,125.33,71.52Z"/>
        <path class="cls-4" d="M136,56.6a2.11,2.11,0,0,1,2.27,2,2.09,2.09,0,0,1-2.27,2,2,2,0,0,1-2.25-2A2.07,2.07,0,0,1,136,56.6Zm-1.82,17.54V61.88h3.56V74.14Z"/>
        <path class="cls-4" d="M146,61.62a8,8,0,0,1,5,1.82L149.38,66a5,5,0,0,0-3.23-1.22,3.19,3.19,0,1,0,0,6.36A4.9,4.9,0,0,0,149.38,70L151,72.57a8,8,0,0,1-5,1.81c-4.21,0-6.86-2.74-6.86-6.38S141.78,61.62,146,61.62Z"/>
        <path class="cls-4" d="M154,56.6a2.11,2.11,0,0,1,2.27,2,2.08,2.08,0,0,1-2.27,2,2,2,0,0,1-2.24-2A2.07,2.07,0,0,1,154,56.6Zm-1.81,17.54V61.88h3.56V74.14Z"/>
        <path class="cls-4" d="M157.89,61.88h3.56v1.68a4.35,4.35,0,0,1,3.8-1.94c3.44,0,4.37,2.75,4.37,5.86v6.66h-3.56V67.55c0-1.7-.62-3-2.27-3s-2.34,1.32-2.34,3v6.57h-3.56Z"/>
        <path class="cls-4" d="M183.56,72a7.69,7.69,0,0,1-5.72,2.42c-4.54,0-7-2.85-7-6.34a6.46,6.46,0,0,1,6.76-6.45c3.4,0,6.65,2.34,6.65,7.22h-9.87c.07,1.53,1.48,2.65,3.75,2.65A5.15,5.15,0,0,0,181.5,70Zm-9.13-5.3h6.14a2.87,2.87,0,0,0-3-2.18A3,3,0,0,0,174.43,66.69Z"/>
      </g>
    </g>
  </g>
</svg>