{
    "key": "group_5e70deebd347b",
    "title": "Consultation Guide Tools Selector",
    "fields": [
        {
            "key": "field_5e70def9ec7bf",
            "label": "Consultation Guide Tool",
            "name": "consultation_guide_tool",
            "type": "select",
            "instructions": "",
            "required": 0,
            "conditional_logic": 0,
            "wrapper": {
                "width": "",
                "class": "",
                "id": ""
            },
            "choices": {
                "activity_calculator": "Activity Calculator",
                "share_benefits": "Choose and Share Benefits",
                "common_concerns": "Common Concerns",
                "cycles": "Cycles",
                "decision": "Decision",
                "activities": "Activities",
                "resources": "Resources",
                "signposts": "Signposts",
                "freeform": "Content Area"
            },
            "default_value": false,
            "allow_null": 1,
            "multiple": 0,
            "ui": 0,
            "return_format": "value",
            "ajax": 0,
            "placeholder": ""
        },
        {
            "key": "field_5e739c3a6b5e3",
            "label": "Title",
            "name": "share_benefits_title",
            "type": "text",
            "instructions": "",
            "required": 0,
            "conditional_logic": [
                [
                    {
                        "field": "field_5e70def9ec7bf",
                        "operator": "==",
                        "value": "share_benefits"
                    }
                ]
            ],
            "wrapper": {
                "width": "",
                "class": "",
                "id": ""
            },
            "default_value": "Choose and share 2-3 relevant benefits",
            "placeholder": "",
            "prepend": "",
            "append": "",
            "maxlength": ""
        },
        {
            "key": "field_5e739c536b5e4",
            "label": "Description",
            "name": "share_benefits_description",
            "type": "textarea",
            "instructions": "",
            "required": 0,
            "conditional_logic": [
                [
                    {
                        "field": "field_5e70def9ec7bf",
                        "operator": "==",
                        "value": "share_benefits"
                    }
                ]
            ],
            "wrapper": {
                "width": "",
                "class": "",
                "id": ""
            },
            "default_value": "Some benefits will be generic (feel better, have more energy, improve sleep, improve fitness levels, improve mood, etc.) and others will be condition specific (reduce risk of serious complications in the future, etc.)",
            "placeholder": "",
            "maxlength": "",
            "rows": "",
            "new_lines": "wpautop"
        },
        {
            "key": "field_5e72946281b36",
            "label": "Share Benefits",
            "name": "share_benefits_content",
            "type": "repeater",
            "instructions": "Add groups of benefits that increase quality of life and decrease pain. If more than one Condition is added, the benefits are grouped by the Condition.",
            "required": 0,
            "conditional_logic": [
                [
                    {
                        "field": "field_5e70def9ec7bf",
                        "operator": "==",
                        "value": "share_benefits"
                    }
                ]
            ],
            "wrapper": {
                "width": "",
                "class": "",
                "id": ""
            },
            "collapsed": "field_5e7299368c905",
            "min": 0,
            "max": 0,
            "layout": "block",
            "button_label": "Add Condition",
            "sub_fields": [
                {
                    "key": "field_5e7299368c905",
                    "label": "Condition",
                    "name": "condition_name",
                    "type": "text",
                    "instructions": "Ignored if only one Condition is entered, otherwise Benefits are grouped by Condition.",
                    "required": 0,
                    "conditional_logic": 0,
                    "wrapper": {
                        "width": "",
                        "class": "",
                        "id": ""
                    },
                    "default_value": "",
                    "placeholder": "",
                    "prepend": "",
                    "append": "",
                    "maxlength": ""
                },
                {
                    "key": "field_5e7296e081b39",
                    "label": "Increases",
                    "name": "increases_content",
                    "type": "relationship",
                    "instructions": "Select the Evidence items that relate to increasing quality of life. New Evidence can be added in <a href=\"\/wp-admin\/post-new.php?post_type=evidence\">the Evidence section<\/a>.",
                    "required": 0,
                    "conditional_logic": 0,
                    "wrapper": {
                        "width": "",
                        "class": "",
                        "id": ""
                    },
                    "post_type": [
                        "evidence"
                    ],
                    "taxonomy": "",
                    "filters": [
                        "search"
                    ],
                    "elements": "",
                    "min": "",
                    "max": "",
                    "return_format": "object"
                },
                {
                    "key": "field_5e72987c81b3d",
                    "label": "Decreases",
                    "name": "decreases_content",
                    "type": "relationship",
                    "instructions": "Select the Evidence items that relate to decreasing pain or symptoms. New Evidence can be added in <a href=\"\/wp-admin\/post-new.php?post_type=evidence\">the Evidence section<\/a>.",
                    "required": 0,
                    "conditional_logic": 0,
                    "wrapper": {
                        "width": "",
                        "class": "",
                        "id": ""
                    },
                    "post_type": [
                        "evidence"
                    ],
                    "taxonomy": "",
                    "filters": [
                        "search"
                    ],
                    "elements": "",
                    "min": "",
                    "max": "",
                    "return_format": "object"
                }
            ]
        },
        {
            "key": "field_5e739bd36b5da",
            "label": "Title",
            "name": "common_concerns_title",
            "type": "text",
            "instructions": "",
            "required": 0,
            "conditional_logic": [
                [
                    {
                        "field": "field_5e70def9ec7bf",
                        "operator": "==",
                        "value": "common_concerns"
                    }
                ]
            ],
            "wrapper": {
                "width": "",
                "class": "",
                "id": ""
            },
            "default_value": "Some common concerns",
            "placeholder": "",
            "prepend": "",
            "append": "",
            "maxlength": ""
        },
        {
            "key": "field_5e739c076b5e2",
            "label": "Description",
            "name": "common_concerns_description",
            "type": "textarea",
            "instructions": "",
            "required": 0,
            "conditional_logic": [
                [
                    {
                        "field": "field_5e70def9ec7bf",
                        "operator": "==",
                        "value": "common_concerns"
                    }
                ]
            ],
            "wrapper": {
                "width": "",
                "class": "",
                "id": ""
            },
            "default_value": "If they mention one of these common concerns, click on it to see a useful response.",
            "placeholder": "",
            "maxlength": "",
            "rows": "",
            "new_lines": "wpautop"
        },
        {
            "key": "field_5e739166a4f6f",
            "label": "Common Concerns",
            "name": "common_concerns_content",
            "type": "repeater",
            "instructions": "",
            "required": 0,
            "conditional_logic": [
                [
                    {
                        "field": "field_5e70def9ec7bf",
                        "operator": "==",
                        "value": "common_concerns"
                    }
                ]
            ],
            "wrapper": {
                "width": "",
                "class": "",
                "id": ""
            },
            "collapsed": "field_5e7391baa4f70",
            "min": 0,
            "max": 0,
            "layout": "block",
            "button_label": "Add Concern",
            "sub_fields": [
                {
                    "key": "field_5e7391baa4f70",
                    "label": "Icon",
                    "name": "icon",
                    "type": "image",
                    "instructions": "This must be an SVG",
                    "required": 0,
                    "conditional_logic": 0,
                    "wrapper": {
                        "width": "25",
                        "class": "",
                        "id": ""
                    },
                    "return_format": "array",
                    "preview_size": "medium",
                    "library": "all",
                    "min_width": "",
                    "min_height": "",
                    "min_size": "",
                    "max_width": "",
                    "max_height": "",
                    "max_size": "",
                    "mime_types": ""
                },
                {
                    "key": "field_5e7391e3a4f71",
                    "label": "Concern",
                    "name": "concern",
                    "type": "text",
                    "instructions": "",
                    "required": 0,
                    "conditional_logic": 0,
                    "wrapper": {
                        "width": "75",
                        "class": "",
                        "id": ""
                    },
                    "default_value": "",
                    "placeholder": "",
                    "prepend": "",
                    "append": "",
                    "maxlength": ""
                },
                {
                    "key": "field_5e739203a4f72",
                    "label": "Content",
                    "name": "content",
                    "type": "wysiwyg",
                    "instructions": "",
                    "required": 0,
                    "conditional_logic": 0,
                    "wrapper": {
                        "width": "",
                        "class": "",
                        "id": ""
                    },
                    "default_value": "",
                    "tabs": "all",
                    "toolbar": "full",
                    "media_upload": 1,
                    "delay": 0
                }
            ]
        },
        {
            "key": "field_5e73a610650c4",
            "label": "Title",
            "name": "cycles_title",
            "type": "text",
            "instructions": "",
            "required": 0,
            "conditional_logic": [
                [
                    {
                        "field": "field_5e70def9ec7bf",
                        "operator": "==",
                        "value": "cycles"
                    }
                ]
            ],
            "wrapper": {
                "width": "",
                "class": "",
                "id": ""
            },
            "default_value": "",
            "placeholder": "",
            "prepend": "",
            "append": "",
            "maxlength": ""
        },
        {
            "key": "field_5e73aa1c650c5",
            "label": "Description",
            "name": "cycles_description",
            "type": "textarea",
            "instructions": "",
            "required": 0,
            "conditional_logic": [
                [
                    {
                        "field": "field_5e70def9ec7bf",
                        "operator": "==",
                        "value": "cycles"
                    }
                ]
            ],
            "wrapper": {
                "width": "",
                "class": "",
                "id": ""
            },
            "default_value": "",
            "placeholder": "",
            "maxlength": "",
            "rows": "",
            "new_lines": "wpautop"
        },
        {
            "key": "field_5e73aa4d650c6",
            "label": "Symptoms",
            "name": "cycles_symptoms_content",
            "type": "repeater",
            "instructions": "",
            "required": 0,
            "conditional_logic": [
                [
                    {
                        "field": "field_5e70def9ec7bf",
                        "operator": "==",
                        "value": "cycles"
                    }
                ]
            ],
            "wrapper": {
                "width": "",
                "class": "",
                "id": ""
            },
            "collapsed": "field_5e73ab22650c7",
            "min": 0,
            "max": 0,
            "layout": "block",
            "button_label": "",
            "sub_fields": [
                {
                    "key": "field_5e73ab22650c7",
                    "label": "Symptom",
                    "name": "cycle_symptom",
                    "type": "text",
                    "instructions": "",
                    "required": 0,
                    "conditional_logic": 0,
                    "wrapper": {
                        "width": "",
                        "class": "",
                        "id": ""
                    },
                    "default_value": "",
                    "placeholder": "",
                    "prepend": "",
                    "append": "",
                    "maxlength": ""
                },
                {
                    "key": "field_5e73ab43650c8",
                    "label": "More Activity",
                    "name": "more_activity",
                    "type": "repeater",
                    "instructions": "",
                    "required": 0,
                    "conditional_logic": [
                        [
                            {
                                "field": "field_5e70def9ec7bf",
                                "operator": "!=empty"
                            }
                        ]
                    ],
                    "wrapper": {
                        "width": "",
                        "class": "",
                        "id": ""
                    },
                    "collapsed": "field_5e73ab7a650c9",
                    "min": 0,
                    "max": 0,
                    "layout": "row",
                    "button_label": "",
                    "sub_fields": [
                        {
                            "key": "field_5e73ab7a650c9",
                            "label": "Step",
                            "name": "step",
                            "type": "text",
                            "instructions": "",
                            "required": 0,
                            "conditional_logic": 0,
                            "wrapper": {
                                "width": "",
                                "class": "",
                                "id": ""
                            },
                            "default_value": "",
                            "placeholder": "",
                            "prepend": "",
                            "append": "",
                            "maxlength": ""
                        }
                    ]
                },
                {
                    "key": "field_5e73ab9b650ca",
                    "label": "Less Activity",
                    "name": "less_activity",
                    "type": "repeater",
                    "instructions": "",
                    "required": 0,
                    "conditional_logic": 0,
                    "wrapper": {
                        "width": "",
                        "class": "",
                        "id": ""
                    },
                    "collapsed": "field_5e73ab7a650c9",
                    "min": 0,
                    "max": 0,
                    "layout": "row",
                    "button_label": "",
                    "sub_fields": [
                        {
                            "key": "field_5e73ab9b650cb",
                            "label": "Step",
                            "name": "step",
                            "type": "text",
                            "instructions": "",
                            "required": 0,
                            "conditional_logic": 0,
                            "wrapper": {
                                "width": "",
                                "class": "",
                                "id": ""
                            },
                            "default_value": "",
                            "placeholder": "",
                            "prepend": "",
                            "append": "",
                            "maxlength": ""
                        }
                    ]
                }
            ]
        },
        {
            "key": "field_5e741aeaf1ddd",
            "label": "Decision",
            "name": "decision",
            "type": "group",
            "instructions": "",
            "required": 0,
            "conditional_logic": [
                [
                    {
                        "field": "field_5e70def9ec7bf",
                        "operator": "==",
                        "value": "decision"
                    }
                ]
            ],
            "wrapper": {
                "width": "",
                "class": "",
                "id": ""
            },
            "layout": "block",
            "sub_fields": [
                {
                    "key": "field_5e741be903f45",
                    "label": "Not Ready",
                    "name": "not_ready",
                    "type": "group",
                    "instructions": "",
                    "required": 0,
                    "conditional_logic": 0,
                    "wrapper": {
                        "width": "50",
                        "class": "",
                        "id": ""
                    },
                    "layout": "block",
                    "sub_fields": [
                        {
                            "key": "field_5e741b66f1de0",
                            "label": "Title",
                            "name": "title",
                            "type": "text",
                            "instructions": "",
                            "required": 0,
                            "conditional_logic": 0,
                            "wrapper": {
                                "width": "",
                                "class": "",
                                "id": ""
                            },
                            "default_value": "If they are not ready",
                            "placeholder": "",
                            "prepend": "",
                            "append": "",
                            "maxlength": ""
                        },
                        {
                            "key": "field_5e741b74f1de1",
                            "label": "Content",
                            "name": "content",
                            "type": "wysiwyg",
                            "instructions": "",
                            "required": 0,
                            "conditional_logic": 0,
                            "wrapper": {
                                "width": "",
                                "class": "",
                                "id": ""
                            },
                            "default_value": "Thank them for taking the time to talk with you about physical activity and offer an opportunity to review the conversation. Reassure them that help is available when they feel ready to change.",
                            "tabs": "all",
                            "toolbar": "full",
                            "media_upload": 0,
                            "delay": 0
                        }
                    ]
                },
                {
                    "key": "field_5e741bce03f44",
                    "label": "Ready",
                    "name": "ready",
                    "type": "group",
                    "instructions": "",
                    "required": 0,
                    "conditional_logic": 0,
                    "wrapper": {
                        "width": "50",
                        "class": "",
                        "id": ""
                    },
                    "layout": "block",
                    "sub_fields": [
                        {
                            "key": "field_5e741b0bf1dde",
                            "label": "Title",
                            "name": "title",
                            "type": "text",
                            "instructions": "",
                            "required": 0,
                            "conditional_logic": 0,
                            "wrapper": {
                                "width": "",
                                "class": "",
                                "id": ""
                            },
                            "default_value": "If they are ready",
                            "placeholder": "",
                            "prepend": "",
                            "append": "",
                            "maxlength": ""
                        },
                        {
                            "key": "field_5e741b45f1ddf",
                            "label": "Content",
                            "name": "content",
                            "type": "wysiwyg",
                            "instructions": "",
                            "required": 0,
                            "conditional_logic": 0,
                            "wrapper": {
                                "width": "",
                                "class": "",
                                "id": ""
                            },
                            "default_value": "Move on to the next step, Planning.\r\n\r\nContinue to keep the focus on them generating their own ideas for change, rather than telling and instructing. People are much more likely to make successful changes if they develop their own plans.",
                            "tabs": "all",
                            "toolbar": "full",
                            "media_upload": 0,
                            "delay": 0
                        }
                    ]
                }
            ]
        },
        {
            "key": "field_5e7427c4c24be",
            "label": "Title",
            "name": "activities_title",
            "type": "text",
            "instructions": "",
            "required": 0,
            "conditional_logic": [
                [
                    {
                        "field": "field_5e70def9ec7bf",
                        "operator": "==",
                        "value": "activities"
                    }
                ]
            ],
            "wrapper": {
                "width": "",
                "class": "",
                "id": ""
            },
            "default_value": "Build activity into everyday life",
            "placeholder": "",
            "prepend": "",
            "append": "",
            "maxlength": ""
        },
        {
            "key": "field_5e742722c24ad",
            "label": "Areas",
            "name": "activities_content",
            "type": "repeater",
            "instructions": "",
            "required": 0,
            "conditional_logic": [
                [
                    {
                        "field": "field_5e70def9ec7bf",
                        "operator": "==",
                        "value": "activities"
                    }
                ]
            ],
            "wrapper": {
                "width": "",
                "class": "",
                "id": ""
            },
            "collapsed": "",
            "min": 0,
            "max": 0,
            "layout": "block",
            "button_label": "Add Area",
            "sub_fields": [
                {
                    "key": "field_5e83d25b0b789",
                    "label": "Title",
                    "name": "title",
                    "type": "text",
                    "instructions": "",
                    "required": 0,
                    "conditional_logic": 0,
                    "wrapper": {
                        "width": "",
                        "class": "",
                        "id": ""
                    },
                    "default_value": "",
                    "placeholder": "",
                    "prepend": "",
                    "append": "",
                    "maxlength": ""
                },
                {
                    "key": "field_5e742722c24af",
                    "label": "Activities",
                    "name": "activities",
                    "type": "repeater",
                    "instructions": "",
                    "required": 0,
                    "conditional_logic": 0,
                    "wrapper": {
                        "width": "",
                        "class": "",
                        "id": ""
                    },
                    "collapsed": "",
                    "min": 0,
                    "max": 0,
                    "layout": "block",
                    "button_label": "Add Activity",
                    "sub_fields": [
                        {
                            "key": "field_5e742722c24b0",
                            "label": "Icon",
                            "name": "icon",
                            "type": "image",
                            "instructions": "",
                            "required": 0,
                            "conditional_logic": 0,
                            "wrapper": {
                                "width": "25",
                                "class": "",
                                "id": ""
                            },
                            "return_format": "array",
                            "preview_size": "medium",
                            "library": "",
                            "min_width": "",
                            "min_height": "",
                            "min_size": "",
                            "max_width": "",
                            "max_height": "",
                            "max_size": "",
                            "mime_types": ""
                        },
                        {
                            "key": "field_5e742722c24b1",
                            "label": "Activity",
                            "name": "activity",
                            "type": "text",
                            "instructions": "",
                            "required": 0,
                            "conditional_logic": 0,
                            "wrapper": {
                                "width": "75",
                                "class": "",
                                "id": ""
                            },
                            "default_value": "",
                            "placeholder": "",
                            "prepend": "",
                            "append": "",
                            "maxlength": ""
                        }
                    ]
                }
            ]
        },
        {
            "key": "field_5e763e32b3149",
            "label": "Title",
            "name": "resources_title",
            "type": "text",
            "instructions": "",
            "required": 0,
            "conditional_logic": [
                [
                    {
                        "field": "field_5e70def9ec7bf",
                        "operator": "==",
                        "value": "resources"
                    }
                ]
            ],
            "wrapper": {
                "width": "",
                "class": "",
                "id": ""
            },
            "default_value": "If they agree, ask them which of these might suit them",
            "placeholder": "",
            "prepend": "",
            "append": "",
            "maxlength": ""
        },
        {
            "key": "field_5e752c79db441",
            "label": "Description",
            "name": "resources_description",
            "type": "textarea",
            "instructions": "",
            "required": 0,
            "conditional_logic": [
                [
                    {
                        "field": "field_5e70def9ec7bf",
                        "operator": "==",
                        "value": "resources"
                    }
                ]
            ],
            "wrapper": {
                "width": "",
                "class": "",
                "id": ""
            },
            "default_value": "Share the relevant resource from the list below with your patient",
            "placeholder": "",
            "maxlength": "",
            "rows": "",
            "new_lines": "wpautop"
        },
        {
            "key": "field_5e752c9fdb442",
            "label": "Resources",
            "name": "resources",
            "type": "relationship",
            "instructions": "New Patient Information can be added here: <a href=\"https:\/\/mm2020.local\/wp-admin\/post-new.php?post_type=patient_information\" target=\"_blank\">Add new Patient Information<\/a>",
            "required": 0,
            "conditional_logic": [
                [
                    {
                        "field": "field_5e70def9ec7bf",
                        "operator": "==",
                        "value": "resources"
                    }
                ]
            ],
            "wrapper": {
                "width": "",
                "class": "",
                "id": ""
            },
            "post_type": [
                "patient_information"
            ],
            "taxonomy": "",
            "filters": [
                "search",
                "taxonomy"
            ],
            "elements": "",
            "min": "",
            "max": "",
            "return_format": "object"
        },
        {
            "key": "field_5e752c4cdb440",
            "label": "Title",
            "name": "signposts_title",
            "type": "text",
            "instructions": "",
            "required": 0,
            "conditional_logic": [
                [
                    {
                        "field": "field_5e70def9ec7bf",
                        "operator": "==",
                        "value": "signposts"
                    }
                ]
            ],
            "wrapper": {
                "width": "",
                "class": "",
                "id": ""
            },
            "default_value": "Support organisations",
            "placeholder": "",
            "prepend": "",
            "append": "",
            "maxlength": ""
        },
        {
            "key": "field_5ea602d4d2cd7",
            "label": "Description",
            "name": "signposts_description",
            "type": "textarea",
            "instructions": "",
            "required": 0,
            "conditional_logic": [
                [
                    {
                        "field": "field_5e70def9ec7bf",
                        "operator": "==",
                        "value": "signposts"
                    }
                ]
            ],
            "wrapper": {
                "width": "",
                "class": "",
                "id": ""
            },
            "default_value": "It can be helpful to share the patient information and other leaflets and links to the following organisations:",
            "placeholder": "",
            "maxlength": "",
            "rows": "",
            "new_lines": "wpautop"
        },
        {
            "key": "field_5e754b11a2e69",
            "label": "Signposts",
            "name": "signposts",
            "type": "relationship",
            "instructions": "New Organisations can be added here (make sure they're marked as a Support type): <a href=\"https:\/\/mm2020.local\/wp-admin\/post-new.php?post_type=organisation\" target=\"_blank\">Add new Organisation<\/a>",
            "required": 0,
            "conditional_logic": [
                [
                    {
                        "field": "field_5e70def9ec7bf",
                        "operator": "==",
                        "value": "signposts"
                    }
                ]
            ],
            "wrapper": {
                "width": "",
                "class": "",
                "id": ""
            },
            "post_type": [
                "organisation"
            ],
            "taxonomy": [
                "organisation_type:support"
            ],
            "filters": [
                "search",
                "taxonomy"
            ],
            "elements": "",
            "min": "",
            "max": "",
            "return_format": "object"
        },
        {
            "key": "field_5e7940d2fd543",
            "label": "Freeform",
            "name": "freeform",
            "type": "wysiwyg",
            "instructions": "",
            "required": 0,
            "conditional_logic": [
                [
                    {
                        "field": "field_5e70def9ec7bf",
                        "operator": "==",
                        "value": ""
                    }
                ],
                [
                    {
                        "field": "field_5e70def9ec7bf",
                        "operator": "==",
                        "value": "freeform"
                    }
                ]
            ],
            "wrapper": {
                "width": "",
                "class": "",
                "id": ""
            },
            "default_value": "",
            "tabs": "all",
            "toolbar": "full",
            "media_upload": 1,
            "delay": 0
        }
    ],
    "location": [
        [
            {
                "param": "block",
                "operator": "==",
                "value": "acf\/cg-tool-selector"
            }
        ]
    ],
    "menu_order": 0,
    "position": "normal",
    "style": "default",
    "label_placement": "top",
    "instruction_placement": "label",
    "hide_on_screen": "",
    "active": true,
    "description": "",
    "modified": 1607897595
}